PC1	2.2	8
PC2	1.1	4
PC3	4.4	2
PC4	1.9	32
PC5	3.8	1
PC6	3.6	16
PC7	3.0	8
PC8	4.6	4
PC9	4.5	2
PC10	4.2	32
PC11	4.9	1
PC12	4.8	16
PC13	1.2	8
PC14	1.8	4
PC15	2.8	2
PC16	2.6	32
PC17	2.4	1
PC18	3.2	16
PC19	1.4	4
PC20	3.8	2
PC21	3.6	32
PC22	3.0	1
PC23	4.6	16
PC24	4.5	32
PC25	4.2	1
PC26	4.9	16
PC27	4.8	4
PC28	1.2	2
PC29	1.8	32
PC30	2.8	1
PC31	2.6	16
PC32	2.4	8
PC33	3.8	4
PC34	3.6	2
PC35	3.0	32
PC36	4.6	1
PC37	4.5	16
PC38	4.2	8
PC39	4.9	4
PC40	4.8	2
PC41	1.2	32
PC42	1.8	1
PC43	2.8	16
PC44	2.6	4
PC45	2.4	2
PC46	3.2	32
PC47	1.4	32
PC48	3.8	1
PC49	3.6	16
PC50	3.0	8
PC51	4.6	4
PC52	4.5	2
PC53	4.2	32
PC54	4.9	1
PC55	4.6	16
PC56	4.5	8
PC57	4.2	4
PC58	4.9	2
PC59	4.8	32
PC60	1.2	1
PC61	1.8	16
PC62	2.8	2
PC63	2.6	32
PC64	2.4	1
PC65	3.8	16
PC66	3.6	32
PC67	3.0	1
PC68	4.6	16
PC69	4.5	4
PC70	4.2	2
PC71	4.9	32
PC72	4.8	1
PC73	4.8	16
PC74	1.2	8
PC75	1.8	4
PC76	2.8	2
PC77	2.6	32
PC78	2.4	1
PC79	3.2	16
PC80	1.4	8
PC81	3.8	4
PC82	3.6	2
PC83	3.0	32
PC84	4.6	1
PC85	4.5	16
PC86	4.2	4
PC87	4.9	2
PC88	4.8	32
PC89	1.2	32
PC90	1.8	1
PC91	2.8	16
PC92	2.6	8
PC93	2.4	4
PC94	1.4	2
PC95	3.8	32
PC96	3.6	1
PC97	3.0	2
PC98	4.6	32
PC99	4.5	1
PC100	4.2	16
PC101	4.9	8
PC102	4.8	4
PC103	1.2	2
PC104	1.8	32
PC105	2.8	1
PC106	2.6	16
PC107	2.4	8
PC108	3.8	4
PC109	3.6	2
PC110	3.0	32
PC111	4.6	1
PC112	4.5	16
PC113	4.2	4
PC114	4.9	2
PC115	4.8	32
PC116	1.2	32
PC117	1.8	1
PC118	2.8	16
PC119	2.6	8
PC120	2.4	4
PC121	3.2	2
PC122	1.4	32
PC123	3.8	1
PC124	3.6	2
PC125	3.0	32
PC126	4.6	32
PC127	4.5	1
PC128	4.2	16
PC129	4.9	8
PC130	4.6	4
PC131	4.5	2
PC132	4.2	32
PC133	4.9	1
PC134	4.8	16
PC135	1.2	8
PC136	1.8	4
PC137	2.8	2
PC138	4.2	32
PC139	4.9	1
PC140	4.8	16
PC141	1.2	2
PC142	1.8	32
PC143	2.8	1
PC144	2.6	16
PC145	2.4	32
PC146	3.2	1
PC147	1.4	16
PC148	3.8	4
PC149	3.6	2
PC150	3.0	32
PC151	4.6	1
PC152	4.5	16
PC153	4.2	8
PC154	4.9	4
PC155	4.8	2
PC156	1.2	32
PC157	1.8	1
PC158	2.8	16
PC159	2.6	8
PC160	2.4	4
PC161	3.8	2
PC162	3.6	32
PC163	3.0	1
PC164	4.6	16
PC165	4.5	4
PC166	4.2	2
PC167	4.9	32
PC168	4.8	32
PC169	1.2	1
PC170	1.8	16
PC171	2.8	8
PC172	2.6	4
PC173	2.4	2
PC174	3.2	32
PC175	1.4	1
PC176	3.8	2
PC177	3.6	32
PC178	3.0	1
PC179	4.6	16
PC180	4.5	8
PC181	4.2	4
PC182	4.9	2
PC183	4.6	32
PC184	4.5	1
PC185	4.2	16
PC186	4.9	8
PC187	4.8	4
PC188	1.2	2
PC189	1.8	16
PC190	2.8	8
PC191	2.6	4
PC192	2.4	2
PC193	3.8	32
PC194	3.6	1
PC195	3.0	2
PC196	4.6	32
PC197	4.5	32
PC198	4.2	1
PC199	4.9	16
PC200	4.8	8
PC201	4.8	4
PC202	1.2	2
PC203	1.8	32
PC204	2.8	1
PC205	2.6	16
PC206	2.4	8
PC207	3.2	4
PC208	1.4	2
PC209	3.8	32
PC210	3.6	1
PC211	3.0	16
PC212	4.6	2
PC213	3.8	32
PC214	3.6	1
PC215	3.0	16
PC216	4.6	32
PC217	4.5	1
PC218	4.2	16
PC219	4.9	4
PC220	4.8	2
PC221	1.2	1
PC222	1.8	2
PC223	2.8	32
PC224	2.6	32
PC225	2.4	1
PC226	3.2	16
PC227	1.4	8
PC228	3.8	4
PC229	3.6	2
PC230	3.0	32
PC231	4.6	1
PC232	4.5	16
PC233	4.2	8
PC234	4.9	4
PC235	4.6	2
PC236	4.5	32
PC237	4.2	1
PC238	4.9	16
PC239	4.8	2
PC240	1.2	32
PC241	1.8	1
PC242	2.8	16
PC243	4.2	32
PC244	4.9	1
PC245	4.8	16
PC246	1.2	4
PC247	1.8	2
PC248	2.8	32
PC249	2.6	1
PC250	2.4	16
PC251	3.2	8
PC252	1.4	4
PC253	3.8	2
PC254	3.6	32
PC255	3.0	1
PC256	4.6	16
PC257	4.5	8
PC258	4.2	4
PC259	4.9	2
PC260	4.6	32
PC261	4.5	1
PC262	4.2	16
PC263	4.9	4
PC264	4.8	2
PC265	1.2	32
PC266	1.8	2
PC267	2.8	32
PC268	2.6	1
PC269	2.4	16
PC270	3.8	8
PC271	3.6	4
PC272	3.0	2
PC273	4.6	16
PC274	4.5	8
PC275	4.2	4
PC276	4.9	2
PC277	4.8	32
PC278	4.8	1
PC279	1.2	2
PC280	1.8	32
PC281	2.8	32
PC282	2.6	1
PC283	2.4	16
PC284	3.2	8
PC285	1.4	4
PC286	3.8	2
PC287	3.6	32
PC288	3.0	1
PC289	4.6	16
PC290	3.8	8
PC291	3.6	4
PC292	3.0	2
PC293	4.6	32
PC294	4.5	1
PC295	4.2	16
PC296	4.9	2
PC297	4.8	32
PC298	1.2	1
PC299	1.8	16
PC300	2.8	32
PC301	2.6	1
PC302	2.4	16
PC303	3.2	4
PC304	1.4	2
PC305	3.8	1
PC306	3.6	2
PC307	3.0	32
PC308	4.6	32
PC309	4.5	1
PC310	4.2	16
PC311	4.9	8
PC312	4.6	4
PC313	1.2	2
PC314	1.8	32
PC315	2.8	1
PC316	4.2	16
PC317	4.9	8
PC318	4.8	4
PC319	1.2	2
PC320	1.8	32
PC321	2.8	1
PC322	2.6	16
PC323	2.4	2
PC324	3.2	32
PC325	1.4	1
PC326	3.8	16
PC327	3.6	32
PC328	3.0	1
PC329	4.6	16
PC330	4.5	4
PC331	4.2	2
PC332	4.9	32
PC333	4.6	1
PC334	4.5	1
PC335	4.2	16
PC336	4.9	8
PC337	4.8	4
PC338	1.2	2
PC339	1.8	32
PC340	2.8	1
PC341	2.6	16
PC342	2.4	4
PC343	3.8	2
PC344	3.6	32
PC345	3.0	2
PC346	4.6	32
PC347	4.5	1
PC348	4.2	16
PC349	4.9	8
PC350	4.8	4
PC351	4.8	2
PC352	1.2	16
PC353	1.8	8
PC354	2.8	4
PC355	2.6	2
PC356	2.4	32
PC357	3.2	1
PC358	1.4	2
PC359	3.8	32
PC360	3.6	32
PC361	3.0	1
PC362	4.6	16
PC363	3.8	8
PC364	3.6	4
PC365	3.0	2
PC366	4.6	32
PC367	4.5	1
PC368	4.2	16
PC369	4.9	8
PC370	4.8	4
PC371	1.2	2
PC372	1.8	32
PC373	4.5	1
PC374	4.2	16
PC375	4.9	2
PC376	4.8	32
PC377	1.2	1
PC378	1.8	16
PC379	2.8	32
PC380	2.6	1
PC381	2.4	16
PC382	3.2	4
PC383	1.4	1
PC384	3.8	16
PC385	3.6	4
PC386	3.0	2
PC387	4.6	1
PC388	4.5	2
PC389	4.2	32
PC390	4.9	32
PC391	4.6	1
PC392	4.5	16
PC393	4.2	8
PC394	4.9	4
PC395	4.8	2
PC396	1.2	32
PC397	1.8	1
PC398	2.8	16
PC399	4.2	8
PC400	4.9	4
PC401	4.8	2
PC402	1.2	32
PC403	1.8	1
PC404	2.8	16
PC405	2.6	2
PC406	2.4	32
PC407	3.2	1
PC408	1.4	16
PC409	3.8	32
PC410	3.6	1
PC411	3.0	16
PC412	4.6	4
PC413	4.5	2
PC414	4.2	32
PC415	4.9	1
PC416	4.6	1
PC417	4.5	16
PC418	4.2	8
PC419	4.9	4
PC420	4.8	2
PC421	1.2	32
PC422	1.8	1
PC423	2.8	16
PC424	2.6	4
PC425	2.4	2
PC426	3.8	32
PC427	3.6	2
PC428	3.0	32
PC429	4.6	1
PC430	4.5	2
PC431	4.2	32
PC432	4.9	32
PC433	4.8	1
PC434	4.8	16
PC435	1.2	8
PC436	1.8	4
PC437	2.8	2
PC438	2.6	32
PC439	2.4	1
PC440	3.2	16
PC441	1.4	8
PC442	3.8	4
PC443	3.6	2
PC444	3.0	32
PC445	4.6	1
PC446	3.8	16
PC447	3.6	2
PC448	3.0	32
PC449	4.6	1
PC450	4.5	16
PC451	4.2	32
PC452	4.9	1
PC453	4.8	16
PC454	1.2	4
PC455	1.8	1
PC456	3.0	16
PC457	4.6	4
PC458	4.5	2
PC459	4.2	1
PC460	4.9	2
PC461	4.6	4
PC462	4.5	2
PC463	4.2	32
PC464	4.9	1
PC465	4.8	16
PC466	1.2	8
PC467	1.8	4
PC468	2.8	2
PC469	4.2	32
PC470	4.9	1
PC471	4.8	16
PC472	1.2	2
PC473	1.8	32
PC474	2.8	1
PC475	2.6	16
PC476	2.4	32
PC477	3.2	1
PC478	1.4	16
PC479	3.8	4
PC480	3.6	1
PC481	3.0	16
PC482	4.6	4
PC483	3.8	2
PC484	3.6	1
PC485	3.0	2
PC486	4.6	32
PC487	4.5	32
PC488	4.2	1
PC489	4.9	16
PC490	4.8	8
PC491	1.2	4
PC492	1.8	2
PC493	4.5	32
PC494	4.2	1
PC495	4.9	16
PC496	4.8	8
PC497	1.2	4
PC498	1.8	2
PC499	3.8	32
PC500	3.6	8
